…
      [55] "versions"                      
    Code
      nrow(results_openalexPro$edges)
    Output
      [1] 45
    Code
      sort(names(results_openalexPro$edges))
    Output
      [1] "edge_type" "from"      "to"       
    Code
      read_snowball(file.path(output_dir), return_data = TRUE, shorten_ids = TRUE,
      edge_type = "core")
    Output
      $nodes
      # A tibble: 46 x 55
         id    doi   title display_name publication_year publication_date ids$openalex
         <chr> <chr> <chr> <chr>                   <int> <date>           <chr>       
       1 W304~ http~ Meas~ Measuring p~             2020 2020-01-01       https://ope~
       2 W304~ http~ Tren~ Trends of P~             2020 2020-08-01       https://ope~
       3 W150~ <NA>  Corp~ Corpora for~             2010 2010-05-17       https://ope~
       4 W151~ http~ Part~ Partridge: ~             2013 2013-01-01       https://ope~
       5 W152~ <NA>  Text~ TextRank: B~             2004 2004-07-01       https://ope~
       6 W157~ http~ Altm~ Altmetrics:~             2013 2013-01-01       https://ope~
       7 W185~ <NA>  The ~ The PageRan~             1999 1999-11-11       https://ope~
       8 W190~ http~ What~ What Teache~             2015 2015-09-11       https://ope~
       9 W199~ http~ The ~ The open ac~             2015 2015-03-11       https://ope~
      10 W205~ <NA>  Argu~ Argumentati~             1999 1999-01-01       https://ope~
      # i 36 more rows
      # i 52 more variables: ids$doi <chr>, $mag <chr>, $pmid <chr>, $pmcid <chr>,
      #   language <chr>, primary_location <tibble[,9]>, type <chr>,
      #   type_crossref <chr>, indexed_in <list<character>>,
      #   open_access <tibble[,4]>,
      #   authorships <list<
…
      $edges
      # A tibble: 45 x 3
         from        to          edge_type
         <chr>       <chr>       <chr>    
       1 W3045921891 W1500530942 core     
       2 W3045921891 W1516819724 core     
       3 W3045921891 W1525595230 core     
       4 W3045921891 W1572136682 core     
       5 W3045921891 W1854214752 core     
       6 W3045921891 W1909800943 core     
       7 W3045921891 W205532704  core     
       8 W3045921891 W2091406001 core     
       9 W3045921891 W2096537696 core     
      10 W3045921891 W2153579005 core     
      # i 35 more rows
      
    Code
      read_snowball(file.path(output_dir), return_data = TRUE, shorten_ids = TRUE,
      edge_type = "extended")
    Output
      $nodes
      # A tibble: 46 x 55
         id    doi   title display_name publication_year publication_date ids$openalex
         <chr> <chr> <chr> <chr>                   <int> <date>           <chr>       
       1 W304~ http~ Meas~ Measuring p~             2020 2020-01-01       https://ope~
       2 W304~ http~ Tren~ Trends of P~             2020 2020-08-01       https://ope~
       3 W150~ <NA>  Corp~ Corpora for~             2010 2010-05-17       https://ope~
       4 W151~ http~ Part~ Partridge: ~             2013 2013-01-01       https://ope~
       5 W152~ <NA>  Text~ TextRank: B~             2004 2004-07-01       https://ope~
       6 W157~ http~ Altm~ Altmetrics:~             2013 2013-01-01       https://ope~
       7 W185~ <NA>  The ~ The PageRan~             1999 1999-11-11       https://ope~
       8 W190~ http~ What~ What Teache~             2015 2015-09-11       https://ope~
       9 W199~ http~ The ~ The open ac~             2015 2015-03-11       https://ope~
      10 W205~ <NA>  Argu~ Argumentati~             1999 1999-01-01       https://ope~
      # i 36 more rows
      # i 52 more variables: ids$doi <chr>, $mag <chr>, $pmid <chr>, $pmcid <chr>,
      #   language <chr>, primary_location <tibble[,9]>, type <chr>,
      #   type_crossref <chr>, indexed_in <list<character>>,
      #   open_access <tibble[,4]>,
      #   authorships <list<
…
      $edges
      # A tibble: 36 x 3
         from        to          edge_type
         <chr>       <chr>       <chr>    
       1 W1516819724 W2096537696 extended 
       2 W1996515099 W1572136682 extended 
       3 W2096537696 W205532704  extended 
       4 W2096537696 W2442495973 extended 
       5 W2096537696 W618607536  extended 
       6 W2250539671 W2153579005 extended 
       7 W2251249502 W2153579005 extended 
       8 W2251249502 W2251861449 extended 
       9 W2251869843 W2251861449 extended 
      10 W2252212014 W1500530942 extended 
      # i 26 more rows
      
    Code
      read_snowball(file.path(output_dir), return_data = TRUE, shorten_ids = TRUE,
      edge_type = c("extended", "core"))
    Output
      $nodes
      # A tibble: 46 x 55
         id    doi   title display_name publication_year publication_date ids$openalex
         <chr> <chr> <chr> <chr>                   <int> <date>           <chr>       
       1 W304~ http~ Meas~ Measuring p~             2020 2020-01-01       https://ope~
       2 W304~ http~ Tren~ Trends of P~             2020 2020-08-01       https://ope~
       3 W150~ <NA>  Corp~ Corpora for~             2010 2010-05-17       https://ope~
       4 W151~ http~ Part~ Partridge: ~             2013 2013-01-01       https://ope~
       5 W152~ <NA>  Text~ TextRank: B~             2004 2004-07-01       https://ope~
       6 W157~ http~ Altm~ Altmetrics:~             2013 2013-01-01       https://ope~
       7 W185~ <NA>  The ~ The PageRan~             1999 1999-11-11       https://ope~
       8 W190~ http~ What~ What Teache~             2015 2015-09-11       https://ope~
       9 W199~ http~ The ~ The open ac~             2015 2015-03-11       https://ope~
      10 W205~ <NA>  Argu~ Argumentati~             1999 1999-01-01       https://ope~
      # i 36 more rows
      # i 52 more variables: ids$doi <chr>, $mag <chr>, $pmid <chr>, $pmcid <chr>,
      #   language <chr>, primary_location <tibble[,9]>, type <chr>,
      #   type_crossref <chr>, indexed_in <list<character>>,
      #   open_access <tibble[,4]>,
      #   authorships <list<
…
      $edges
      # A tibble: 81 x 3
         from        to          edge_type
         <chr>       <chr>       <chr>    
       1 W1516819724 W2096537696 extended 
       2 W1996515099 W1572136682 extended 
       3 W2096537696 W205532704  extended 
       4 W2096537696 W2442495973 extended 
       5 W2096537696 W618607536  extended 
       6 W2250539671 W2153579005 extended 
       7 W2251249502 W2153579005 extended 
       8 W2251249502 W2251861449 extended 
       9 W2251869843 W2251861449 extended 
      10 W2252212014 W1500530942 extended 
      # i 71 more rows
      
    Code
      read_snowball(file.path(output_dir), return_data = TRUE, shorten_ids = TRUE,
      edge_type = "outside")
    Output
      $nodes
      # A tibble: 46 x 55
         id    doi   title display_name publication_year publication_date ids$openalex
         <chr> <chr> <chr> <chr>                   <int> <date>           <chr>       
       1 W304~ http~ Meas~ Measuring p~             2020 2020-01-01       https://ope~
       2 W304~ http~ Tren~ Trends of P~             2020 2020-08-01       https://ope~
       3 W150~ <NA>  Corp~ Corpora for~             2010 2010-05-17       https://ope~
       4 W151~ http~ Part~ Partridge: ~             2013 2013-01-01       https://ope~
       5 W152~ <NA>  Text~ TextRank: B~             2004 2004-07-01       https://ope~
       6 W157~ http~ Altm~ Altmetrics:~             2013 2013-01-01       https://ope~
       7 W185~ <NA>  The ~ The PageRan~             1999 1999-11-11       https://ope~
       8 W190~ http~ What~ What Teache~             2015 2015-09-11       https://ope~
       9 W199~ http~ The ~ The open ac~             2015 2015-03-11       https://ope~
      10 W205~ <NA>  Argu~ Argumentati~             1999 1999-01-01       https://ope~
      # i 36 more rows
      # i 52 more variables: ids$doi <chr>, $mag <chr>, $pmid <chr>, $pmcid <chr>,
      #   language <chr>, primary_location <tibble[,9]>, type <chr>,
      #   type_crossref <chr>, indexed_in <list<character>>,
      #   open_access <tibble[,4]>,
      #   authorships <list<
…
      $edges
      # A tibble: 1,214 x 3
         from        to          edge_type
         <chr>       <chr>       <chr>    
       1 W1500530942 W1516240602 outside  
       2 W1500530942 W1975879668 outside  
       3 W1500530942 W1979773093 outside  
       4 W1500530942 W1982464493 outside  
       5 W1500530942 W2002664886 outside  
       6 W1500530942 W2006802446 outside  
       7 W1500530942 W2027943492 outside  
       8 W1500530942 W2050355460 outside  
       9 W1500530942 W2053154970 outside  
      10 W1500530942 W2070285512 outside  
      # i 1,204 more rows
…
